<svg width="14" height="14" viewBox="0 0 14 14" fill="none" xmlns="http://www.w3.org/2000/svg">
<path fill-rule="evenodd" clip-rule="evenodd" d="M7.00033 0.666504C7.55261 0.666504 8.00033 1.11422 8.00033 1.6665V5.99984H12.3337C12.8859 5.99984 13.3337 6.44755 13.3337 6.99984C13.3337 7.55212 12.8859 7.99984 12.3337 7.99984H8.00033V12.3332C8.00033 12.8855 7.55261 13.3332 7.00033 13.3332C6.44804 13.3332 6.00033 12.8855 6.00033 12.3332V7.99984H1.66699C1.11471 7.99984 0.666992 7.55212 0.666992 6.99984C0.666992 6.44755 1.11471 5.99984 1.66699 5.99984H6.00033V1.6665C6.00033 1.11422 6.44804 0.666504 7.00033 0.666504Z" fill="url(#paint0_linear_58459_33759)"/>
<defs>
<linearGradient id="paint0_linear_58459_33759" x1="0.696313" y1="0.666505" x2="15.5983" y2="4.39199" gradientUnits="userSpaceOnUse">
<stop stop-color="#FBAAFF"/>
<stop offset="1" stop-color="#C8AEFF"/>
</linearGradient>
</defs>
</svg>
