<svg width="38" height="24" viewBox="0 0 38 24" fill="none" xmlns="http://www.w3.org/2000/svg">
<path d="M23.705 6L22.295 7.41L26.875 12L22.295 16.59L23.705 18L29.705 12L23.705 6Z" fill="#454545"/>
<path d="M9.70501 6L8.29501 7.41L12.875 12L8.29501 16.59L9.70501 18L15.705 12L9.70501 6Z" fill="#454545"/>
</svg>
